{
	"info": {
		"_postman_id": "944a093c-99ad-4a9d-8aff-7f8d3b260f36",
		"name": "DPB Servis",
		"schema": "https://schema.getpostman.com/json/collection/v2.1.0/collection.json"
	},
	"item": [
		{
			"name": "User authentication",
			"request": {
				"auth": {
					"type": "bearer",
					"bearer": [
						{
							"key": "token",
							"value": "eyJhbGciOiJIUzI1NiIsInR5cCI6IkpXVCJ9.eyJ1bmlxdWVfbmFtZSI6InVzZXIxIiwibmJmIjoxNjI0NTM3MTQ2LCJleHAiOjE2MjQ1Mzc0NDYsImlhdCI6MTYyNDUzNzE0Nn0.olZdObOgE7FfGlieAfw5TMNTfdjSxDTPVgavWP2t7Ac",
							"type": "string"
						}
					]
				},
				"method": "GET",
				"header": [],
				"url": {
					"raw": "https://localhost:44353/api/auth",
					"protocol": "https",
					"host": [
						"localhost"
					],
					"port": "44353",
					"path": [
						"api",
						"auth"
					],
					"query": [
						{
							"key": "date",
							"value": "2021-06-23",
							"disabled": true
						}
					]
				},
				"description": "Ovaj API sluzi za dobijenje JWT Tokena, ne prosledjuje mu se nista od parametara. Trenutno je podeseno da token istice nakon 5 minuta (linija 36 u AuthServiceImpl.cs)"
			},
			"response": []
		},
		{
			"name": "User authentication (username, password)",
			"request": {
				"method": "POST",
				"header": [],
				"body": {
					"mode": "raw",
					"raw": "{\r\n    \"UserName\":\"user1\", \r\n    \"Password\":\"password1\"\r\n}",
					"options": {
						"raw": {
							"language": "json"
						}
					}
				},
				"url": {
					"raw": "https://localhost:44353/api/user",
					"protocol": "https",
					"host": [
						"localhost"
					],
					"port": "44353",
					"path": [
						"api",
						"user"
					]
				},
				"description": "Ovaj API sluzi za dobijenja JWT Tokena. Kroz body mu se prosledjuje User u formatu \r\n{\r\n    \"UserName\":\"user1\", \r\n    \"Password\":\"password1\"\r\n}\r\n\r\nTrenutno u UserSericeImpl.cs postoje dva primitivna testna User-a, token je podesen da istice nakon 5 minuta (linija 46)"
			},
			"response": []
		},
		{
			"name": "Get Casefiles",
			"request": {
				"auth": {
					"type": "bearer",
					"bearer": [
						{
							"key": "token",
							"value": "eyJhbGciOiJIUzI1NiIsInR5cCI6IkpXVCJ9.eyJuYmYiOjE2MjU1NTQ5NTYsImV4cCI6MTYyNTU1NTI1NiwiaWF0IjoxNjI1NTU0OTU2fQ.M4tLGFzsLHDRGYAvjSiYB6FXtPahSQgYFRLCwDP-3wQ",
							"type": "string"
						}
					]
				},
				"method": "GET",
				"header": [],
				"url": {
					"raw": "https://localhost:44353/api/casefiles?date=2017-03-16",
					"protocol": "https",
					"host": [
						"localhost"
					],
					"port": "44353",
					"path": [
						"api",
						"casefiles"
					],
					"query": [
						{
							"key": "date",
							"value": "2017-03-16"
						}
					]
				},
				"description": "Ovaj API vraca sve predmete koji su imali izmenu na datum koji je prosledjen kao parametar. U pozivu je potrebni poslati i JWT token koji se dobija nakon poziva User authentication API"
			},
			"response": []
		},
		{
			"name": "Get Decision Content",
			"request": {
				"auth": {
					"type": "bearer",
					"bearer": [
						{
							"key": "token",
							"value": "eyJhbGciOiJIUzI1NiIsInR5cCI6IkpXVCJ9.eyJuYmYiOjE2MjU1NTU1MzAsImV4cCI6MTYyNTU1NTgzMCwiaWF0IjoxNjI1NTU1NTMwfQ.bukQ_4HD1egnBS7MFnU1XEa9m0VmlICe5CIzP3pTeS8",
							"type": "string"
						}
					]
				},
				"method": "GET",
				"header": [
					{
						"key": "Content-Type",
						"value": "application/pdf",
						"type": "text"
					}
				],
				"url": {
					"raw": "https://localhost:44353/api/DocumentKJS/932191",
					"protocol": "https",
					"host": [
						"localhost"
					],
					"port": "44353",
					"path": [
						"api",
						"DocumentKJS",
						"932191"
					],
					"query": [
						{
							"key": "date",
							"value": "2017-03-16",
							"disabled": true
						}
					]
				},
				"description": "Ovaj API vraca poslednju odluku za zadati predmet u PDF formatu. Prosledjuje mu se ID predmeta i JWT token koji se generise nakon poziva User authentication API.\r\n"
			},
			"response": []
		}
	]
}